{
	"format": "item-1",
	"_comment": "",
	"name": "Meat",
	"category": "food",
	"type": "consumable",
	"weight": 0.5,
	"base_value": 5,
	"description": "A slab of meat.",
	"quality_levels": ["Rotten", "Spoiling", "", "Fresh", "Fresh", "Quality", "Delicious", "Eqxuisite"],
	"icon": "bag.png",
	"effects": []
}
